{
    "directed": false,
    "multigraph": false,
    "graph": {
        "default_node_size": 0.04
    },
    "nodes": [
        {
            "pos": [
                0.95,
                0.09
            ],
            "id": 30001043
        },
        {
            "pos": [
                0.95,
                0.348
            ],
            "id": 30001047
        },
        {
            "pos": [
                0.94,
                0.518
            ],
            "id": 30001050
        },
        {
            "pos": [
                0.91,
                0.46
            ],
            "id": 30001048
        },
        {
            "pos": [
                0.905,
                0.248
            ],
            "id": 30001049
        },
        {
            "pos": [
                0.905,
                0.298
            ],
            "id": 30001046
        },
        {
            "pos": [
                0.905,
                0.398
            ],
            "id": 30001045
        },
        {
            "pos": [
                0.875,
                0.09
            ],
            "id": 30001042
        },
        {
            "pos": [
                0.865,
                0.348
            ],
            "id": 30001044
        },
        {
            "pos": [
                0.835,
                0.13
            ],
            "id": 30001037
        },
        {
            "pos": [
                0.795,
                0.09
            ],
            "id": 30001038
        },
        {
            "pos": [
                0.77,
                0.17
            ],
            "id": 30001040
        },
        {
            "pos": [
                0.76,
                0.13
            ],
            "id": 30001039
        },
        {
            "pos": [
                0.75,
                0.3
            ],
            "id": 30001028
        },
        {
            "pos": [
                0.745,
                0.25
            ],
            "id": 30001024
        },
        {
            "pos": [
                0.725,
                0.473
            ],
            "id": 30001008
        },
        {
            "pos": [
                0.7150000000000001,
                0.055
            ],
            "id": 30001036
        },
        {
            "pos": [
                0.7150000000000001,
                0.09
            ],
            "id": 30001041
        },
        {
            "pos": [
                0.69,
                0.28
            ],
            "id": 30001026
        },
        {
            "pos": [
                0.675,
                0.418
            ],
            "id": 30001012
        },
        {
            "pos": [
                0.675,
                0.523
            ],
            "id": 30001009
        },
        {
            "pos": [
                0.655,
                0.32
            ],
            "id": 30001022
        },
        {
            "pos": [
                0.62,
                0.175
            ],
            "id": 30001027
        },
        {
            "pos": [
                0.62,
                0.215
            ],
            "id": 30001023
        },
        {
            "pos": [
                0.62,
                0.255
            ],
            "id": 30001025
        },
        {
            "pos": [
                0.62,
                0.468
            ],
            "id": 30001010
        },
        {
            "pos": [
                0.62,
                0.558
            ],
            "id": 30001007
        },
        {
            "pos": [
                0.56,
                0.418
            ],
            "id": 30001011
        },
        {
            "pos": [
                0.55,
                0.513
            ],
            "id": 30001015
        },
        {
            "pos": [
                0.55,
                0.558
            ],
            "id": 30001013
        },
        {
            "pos": [
                0.505,
                0.468
            ],
            "id": 30001014
        },
        {
            "pos": [
                0.485,
                0.12
            ],
            "id": 30001020
        },
        {
            "pos": [
                0.48,
                0.205
            ],
            "id": 30001017
        },
        {
            "pos": [
                0.41000000000000003,
                0.175
            ],
            "id": 30001019
        },
        {
            "pos": [
                0.395,
                0.13
            ],
            "id": 30001016
        },
        {
            "pos": [
                0.345,
                0.415
            ],
            "id": 30000659
        },
        {
            "pos": [
                0.30500000000000005,
                0.15
            ],
            "id": 30001018
        },
        {
            "pos": [
                0.27,
                0.395
            ],
            "id": 30000657
        },
        {
            "pos": [
                0.26,
                0.565
            ],
            "id": 30001006
        },
        {
            "pos": [
                0.22999999999999998,
                0.175
            ],
            "id": 30001021
        },
        {
            "pos": [
                0.21499999999999997,
                0.35
            ],
            "id": 30001029
        },
        {
            "pos": [
                0.20999999999999996,
                0.525
            ],
            "id": 30001003
        },
        {
            "pos": [
                0.16500000000000004,
                0.26
            ],
            "id": 30001032
        },
        {
            "pos": [
                0.16500000000000004,
                0.305
            ],
            "id": 30001031
        },
        {
            "pos": [
                0.16500000000000004,
                0.445
            ],
            "id": 30001001
        },
        {
            "pos": [
                0.16500000000000004,
                0.49
            ],
            "id": 30001002
        },
        {
            "pos": [
                0.12,
                0.525
            ],
            "id": 30001004
        },
        {
            "pos": [
                0.10499999999999998,
                0.235
            ],
            "id": 30001030
        },
        {
            "pos": [
                0.09499999999999997,
                0.35
            ],
            "id": 30001033
        },
        {
            "pos": [
                0.09499999999999997,
                0.39
            ],
            "id": 30001035
        },
        {
            "pos": [
                0.08999999999999997,
                0.475
            ],
            "id": 30001005
        },
        {
            "pos": [
                0.06000000000000005,
                0.31
            ],
            "id": 30001034
        },
        {
            "pos": [
                1.0,
                0.278
            ],
            "id": 30000015
        },
        {
            "pos": [
                0.995,
                0.563
            ],
            "id": 30001170
        },
        {
            "pos": [
                0.745,
                0.568
            ],
            "id": 30001155
        },
        {
            "pos": [
                0.485,
                0.08
            ],
            "id": 30000921
        },
        {
            "pos": [
                0.385,
                0.305
            ],
            "id": 30000656
        },
        {
            "pos": [
                0.375,
                0.455
            ],
            "id": 30000660
        },
        {
            "pos": [
                0.37,
                0.365
            ],
            "id": 30000658
        },
        {
            "pos": [
                0.30000000000000004,
                0.455
            ],
            "id": 30000691
        },
        {
            "pos": [
                0.29500000000000004,
                0.345
            ],
            "id": 30000655
        },
        {
            "pos": [
                0.29000000000000004,
                0.205
            ],
            "id": 30000688
        }
    ],
    "links": [
        {
            "edge_type": "stargate",
            "source": 0,
            "target": 7
        },
        {
            "edge_type": "stargate",
            "source": 1,
            "target": 6
        },
        {
            "edge_type": "stargate",
            "source": 1,
            "target": 5
        },
        {
            "edge_type": "stargate",
            "source": 1,
            "target": 52
        },
        {
            "edge_type": "stargate",
            "source": 2,
            "target": 3
        },
        {
            "edge_type": "stargate",
            "source": 2,
            "target": 53
        },
        {
            "edge_type": "stargate",
            "source": 3,
            "target": 6
        },
        {
            "edge_type": "stargate",
            "source": 4,
            "target": 5
        },
        {
            "edge_type": "stargate",
            "source": 5,
            "target": 8
        },
        {
            "edge_type": "stargate",
            "source": 6,
            "target": 8
        },
        {
            "edge_type": "stargate",
            "source": 7,
            "target": 9
        },
        {
            "edge_type": "stargate",
            "source": 7,
            "target": 10
        },
        {
            "edge_type": "stargate",
            "source": 8,
            "target": 13
        },
        {
            "edge_type": "stargate",
            "source": 9,
            "target": 12
        },
        {
            "edge_type": "stargate",
            "source": 10,
            "target": 17
        },
        {
            "edge_type": "stargate",
            "source": 11,
            "target": 12
        },
        {
            "edge_type": "stargate",
            "source": 12,
            "target": 17
        },
        {
            "edge_type": "stargate",
            "source": 13,
            "target": 14
        },
        {
            "edge_type": "stargate",
            "source": 13,
            "target": 18
        },
        {
            "edge_type": "stargate",
            "source": 14,
            "target": 18
        },
        {
            "edge_type": "stargate",
            "source": 15,
            "target": 20
        },
        {
            "edge_type": "stargate",
            "source": 15,
            "target": 19
        },
        {
            "edge_type": "stargate",
            "source": 16,
            "target": 17
        },
        {
            "edge_type": "stargate",
            "source": 17,
            "target": 31
        },
        {
            "edge_type": "stargate",
            "source": 18,
            "target": 21
        },
        {
            "edge_type": "stargate",
            "source": 18,
            "target": 24
        },
        {
            "edge_type": "stargate",
            "source": 19,
            "target": 25
        },
        {
            "edge_type": "stargate",
            "source": 19,
            "target": 27
        },
        {
            "edge_type": "stargate",
            "source": 20,
            "target": 26
        },
        {
            "edge_type": "stargate",
            "source": 20,
            "target": 25
        },
        {
            "edge_type": "stargate",
            "source": 20,
            "target": 54
        },
        {
            "edge_type": "stargate",
            "source": 22,
            "target": 23
        },
        {
            "edge_type": "stargate",
            "source": 23,
            "target": 24
        },
        {
            "edge_type": "stargate",
            "source": 24,
            "target": 32
        },
        {
            "edge_type": "stargate",
            "source": 25,
            "target": 27
        },
        {
            "edge_type": "stargate",
            "source": 25,
            "target": 30
        },
        {
            "edge_type": "stargate",
            "source": 25,
            "target": 28
        },
        {
            "edge_type": "stargate",
            "source": 26,
            "target": 29
        },
        {
            "edge_type": "stargate",
            "source": 27,
            "target": 30
        },
        {
            "edge_type": "stargate",
            "source": 27,
            "target": 33
        },
        {
            "edge_type": "stargate",
            "source": 28,
            "target": 30
        },
        {
            "edge_type": "stargate",
            "source": 31,
            "target": 34
        },
        {
            "edge_type": "stargate",
            "source": 31,
            "target": 55
        },
        {
            "edge_type": "stargate",
            "source": 32,
            "target": 33
        },
        {
            "edge_type": "stargate",
            "source": 33,
            "target": 34
        },
        {
            "edge_type": "stargate",
            "source": 33,
            "target": 56
        },
        {
            "edge_type": "stargate",
            "source": 34,
            "target": 36
        },
        {
            "edge_type": "stargate",
            "source": 35,
            "target": 37
        },
        {
            "edge_type": "stargate",
            "source": 35,
            "target": 58
        },
        {
            "edge_type": "stargate",
            "source": 35,
            "target": 57
        },
        {
            "edge_type": "stargate",
            "source": 35,
            "target": 59
        },
        {
            "edge_type": "stargate",
            "source": 36,
            "target": 39
        },
        {
            "edge_type": "stargate",
            "source": 37,
            "target": 60
        },
        {
            "edge_type": "stargate",
            "source": 37,
            "target": 44
        },
        {
            "edge_type": "stargate",
            "source": 37,
            "target": 40
        },
        {
            "edge_type": "stargate",
            "source": 38,
            "target": 41
        },
        {
            "edge_type": "stargate",
            "source": 39,
            "target": 61
        },
        {
            "edge_type": "stargate",
            "source": 39,
            "target": 42
        },
        {
            "edge_type": "stargate",
            "source": 40,
            "target": 43
        },
        {
            "edge_type": "stargate",
            "source": 41,
            "target": 45
        },
        {
            "edge_type": "stargate",
            "source": 42,
            "target": 47
        },
        {
            "edge_type": "stargate",
            "source": 42,
            "target": 43
        },
        {
            "edge_type": "stargate",
            "source": 43,
            "target": 44
        },
        {
            "edge_type": "stargate",
            "source": 43,
            "target": 48
        },
        {
            "edge_type": "stargate",
            "source": 44,
            "target": 45
        },
        {
            "edge_type": "stargate",
            "source": 44,
            "target": 50
        },
        {
            "edge_type": "stargate",
            "source": 44,
            "target": 49
        },
        {
            "edge_type": "stargate",
            "source": 45,
            "target": 46
        },
        {
            "edge_type": "stargate",
            "source": 45,
            "target": 50
        },
        {
            "edge_type": "stargate",
            "source": 48,
            "target": 51
        },
        {
            "edge_type": "stargate",
            "source": 48,
            "target": 49
        },
        {
            "edge_type": "stargate",
            "source": 56,
            "target": 58
        },
        {
            "edge_type": "stargate",
            "source": 58,
            "target": 60
        }
    ]
}