{
    "directed": false,
    "multigraph": false,
    "graph": {
        "default_node_size": 0.04
    },
    "nodes": [
        {
            "pos": [
                0.985,
                0.545
            ],
            "id": 30003062
        },
        {
            "pos": [
                0.975,
                0.09
            ],
            "id": 30003055
        },
        {
            "pos": [
                0.935,
                0.58
            ],
            "id": 30003060
        },
        {
            "pos": [
                0.92,
                0.53
            ],
            "id": 30003061
        },
        {
            "pos": [
                0.915,
                0.645
            ],
            "id": 30003059
        },
        {
            "pos": [
                0.905,
                0.35
            ],
            "id": 30003013
        },
        {
            "pos": [
                0.9,
                0.09
            ],
            "id": 30003052
        },
        {
            "pos": [
                0.885,
                0.61
            ],
            "id": 30003058
        },
        {
            "pos": [
                0.845,
                0.28
            ],
            "id": 30003015
        },
        {
            "pos": [
                0.83,
                0.41
            ],
            "id": 30003012
        },
        {
            "pos": [
                0.8200000000000001,
                0.09
            ],
            "id": 30003048
        },
        {
            "pos": [
                0.8200000000000001,
                0.16
            ],
            "id": 30003054
        },
        {
            "pos": [
                0.815,
                0.62
            ],
            "id": 30003057
        },
        {
            "pos": [
                0.81,
                0.34
            ],
            "id": 30003016
        },
        {
            "pos": [
                0.745,
                0.035
            ],
            "id": 30003056
        },
        {
            "pos": [
                0.735,
                0.09
            ],
            "id": 30003050
        },
        {
            "pos": [
                0.735,
                0.16
            ],
            "id": 30003047
        },
        {
            "pos": [
                0.735,
                0.295
            ],
            "id": 30003009
        },
        {
            "pos": [
                0.735,
                0.505
            ],
            "id": 30003043
        },
        {
            "pos": [
                0.73,
                0.375
            ],
            "id": 30003014
        },
        {
            "pos": [
                0.72,
                0.195
            ],
            "id": 30003045
        },
        {
            "pos": [
                0.72,
                0.615
            ],
            "id": 30003044
        },
        {
            "pos": [
                0.71,
                0.56
            ],
            "id": 30003040
        },
        {
            "pos": [
                0.675,
                0.27
            ],
            "id": 30003011
        },
        {
            "pos": [
                0.675,
                0.33
            ],
            "id": 30003010
        },
        {
            "pos": [
                0.655,
                0.09
            ],
            "id": 30003046
        },
        {
            "pos": [
                0.655,
                0.205
            ],
            "id": 30003049
        },
        {
            "pos": [
                0.64,
                0.155
            ],
            "id": 30003051
        },
        {
            "pos": [
                0.61,
                0.475
            ],
            "id": 30003039
        },
        {
            "pos": [
                0.61,
                0.535
            ],
            "id": 30003042
        },
        {
            "pos": [
                0.575,
                0.21
            ],
            "id": 30003053
        },
        {
            "pos": [
                0.54,
                0.44
            ],
            "id": 30003041
        },
        {
            "pos": [
                0.53,
                0.6
            ],
            "id": 30003038
        },
        {
            "pos": [
                0.475,
                0.305
            ],
            "id": 30003022
        },
        {
            "pos": [
                0.46499999999999997,
                0.245
            ],
            "id": 30003023
        },
        {
            "pos": [
                0.45999999999999996,
                0.355
            ],
            "id": 30003020
        },
        {
            "pos": [
                0.43500000000000005,
                0.4
            ],
            "id": 30003018
        },
        {
            "pos": [
                0.41000000000000003,
                0.455
            ],
            "id": 30003021
        },
        {
            "pos": [
                0.395,
                0.585
            ],
            "id": 30003027
        },
        {
            "pos": [
                0.375,
                0.055
            ],
            "id": 30003037
        },
        {
            "pos": [
                0.375,
                0.345
            ],
            "id": 30003017
        },
        {
            "pos": [
                0.35,
                0.42
            ],
            "id": 30003019
        },
        {
            "pos": [
                0.33999999999999997,
                0.53
            ],
            "id": 30003029
        },
        {
            "pos": [
                0.32499999999999996,
                0.62
            ],
            "id": 30003024
        },
        {
            "pos": [
                0.29000000000000004,
                0.56
            ],
            "id": 30003028
        },
        {
            "pos": [
                0.27,
                0.105
            ],
            "id": 30003036
        },
        {
            "pos": [
                0.245,
                0.655
            ],
            "id": 30003030
        },
        {
            "pos": [
                0.22499999999999998,
                0.58
            ],
            "id": 30003025
        },
        {
            "pos": [
                0.21999999999999997,
                0.165
            ],
            "id": 30003035
        },
        {
            "pos": [
                0.21999999999999997,
                0.235
            ],
            "id": 30003033
        },
        {
            "pos": [
                0.18500000000000005,
                0.295
            ],
            "id": 30003032
        },
        {
            "pos": [
                0.16000000000000003,
                0.505
            ],
            "id": 30003026
        },
        {
            "pos": [
                0.135,
                0.2
            ],
            "id": 30003034
        },
        {
            "pos": [
                0.09999999999999998,
                0.26
            ],
            "id": 30003031
        },
        {
            "pos": [
                1.0,
                0.5
            ],
            "id": 30002728
        },
        {
            "pos": [
                0.995,
                0.035
            ],
            "id": 30005288
        },
        {
            "pos": [
                0.935,
                0.48
            ],
            "id": 30002654
        },
        {
            "pos": [
                0.92,
                0.035
            ],
            "id": 30005201
        },
        {
            "pos": [
                0.655,
                0.37
            ],
            "id": 30004968
        },
        {
            "pos": [
                0.385,
                0.69
            ],
            "id": 30002699
        },
        {
            "pos": [
                0.365,
                0.27
            ],
            "id": 30002708
        },
        {
            "pos": [
                0.30000000000000004,
                0.71
            ],
            "id": 30002692
        },
        {
            "pos": [
                0.29500000000000004,
                0.485
            ],
            "id": 30002662
        },
        {
            "pos": [
                0.29000000000000004,
                0.2
            ],
            "id": 30002715
        },
        {
            "pos": [
                0.22499999999999998,
                0.72
            ],
            "id": 30002648
        },
        {
            "pos": [
                0.135,
                0.45
            ],
            "id": 30002655
        },
        {
            "pos": [
                0.10499999999999998,
                0.135
            ],
            "id": 30002639
        },
        {
            "pos": [
                0.09999999999999998,
                0.33
            ],
            "id": 30002659
        },
        {
            "pos": [
                0.03500000000000003,
                0.195
            ],
            "id": 30002706
        }
    ],
    "links": [
        {
            "edge_type": "stargate",
            "source": 0,
            "target": 2
        },
        {
            "edge_type": "stargate",
            "source": 0,
            "target": 54
        },
        {
            "edge_type": "stargate",
            "source": 1,
            "target": 6
        },
        {
            "edge_type": "stargate",
            "source": 1,
            "target": 55
        },
        {
            "edge_type": "stargate",
            "source": 2,
            "target": 7
        },
        {
            "edge_type": "stargate",
            "source": 2,
            "target": 3
        },
        {
            "edge_type": "stargate",
            "source": 3,
            "target": 56
        },
        {
            "edge_type": "stargate",
            "source": 4,
            "target": 7
        },
        {
            "edge_type": "stargate",
            "source": 5,
            "target": 17
        },
        {
            "edge_type": "stargate",
            "source": 5,
            "target": 9
        },
        {
            "edge_type": "stargate",
            "source": 5,
            "target": 19
        },
        {
            "edge_type": "stargate",
            "source": 5,
            "target": 8
        },
        {
            "edge_type": "stargate",
            "source": 5,
            "target": 13
        },
        {
            "edge_type": "stargate",
            "source": 6,
            "target": 10
        },
        {
            "edge_type": "stargate",
            "source": 6,
            "target": 57
        },
        {
            "edge_type": "stargate",
            "source": 7,
            "target": 12
        },
        {
            "edge_type": "stargate",
            "source": 8,
            "target": 9
        },
        {
            "edge_type": "stargate",
            "source": 8,
            "target": 19
        },
        {
            "edge_type": "stargate",
            "source": 8,
            "target": 20
        },
        {
            "edge_type": "stargate",
            "source": 9,
            "target": 17
        },
        {
            "edge_type": "stargate",
            "source": 9,
            "target": 19
        },
        {
            "edge_type": "stargate",
            "source": 9,
            "target": 13
        },
        {
            "edge_type": "stargate",
            "source": 9,
            "target": 18
        },
        {
            "edge_type": "stargate",
            "source": 10,
            "target": 16
        },
        {
            "edge_type": "stargate",
            "source": 10,
            "target": 15
        },
        {
            "edge_type": "stargate",
            "source": 10,
            "target": 11
        },
        {
            "edge_type": "stargate",
            "source": 11,
            "target": 20
        },
        {
            "edge_type": "stargate",
            "source": 11,
            "target": 25
        },
        {
            "edge_type": "stargate",
            "source": 11,
            "target": 16
        },
        {
            "edge_type": "stargate",
            "source": 11,
            "target": 15
        },
        {
            "edge_type": "stargate",
            "source": 11,
            "target": 14
        },
        {
            "edge_type": "stargate",
            "source": 12,
            "target": 21
        },
        {
            "edge_type": "stargate",
            "source": 13,
            "target": 17
        },
        {
            "edge_type": "stargate",
            "source": 14,
            "target": 25
        },
        {
            "edge_type": "stargate",
            "source": 14,
            "target": 15
        },
        {
            "edge_type": "stargate",
            "source": 15,
            "target": 25
        },
        {
            "edge_type": "stargate",
            "source": 15,
            "target": 16
        },
        {
            "edge_type": "stargate",
            "source": 16,
            "target": 20
        },
        {
            "edge_type": "stargate",
            "source": 16,
            "target": 25
        },
        {
            "edge_type": "stargate",
            "source": 17,
            "target": 24
        },
        {
            "edge_type": "stargate",
            "source": 17,
            "target": 23
        },
        {
            "edge_type": "stargate",
            "source": 17,
            "target": 19
        },
        {
            "edge_type": "stargate",
            "source": 18,
            "target": 28
        },
        {
            "edge_type": "stargate",
            "source": 18,
            "target": 22
        },
        {
            "edge_type": "stargate",
            "source": 18,
            "target": 29
        },
        {
            "edge_type": "stargate",
            "source": 19,
            "target": 24
        },
        {
            "edge_type": "stargate",
            "source": 19,
            "target": 28
        },
        {
            "edge_type": "stargate",
            "source": 19,
            "target": 58
        },
        {
            "edge_type": "stargate",
            "source": 20,
            "target": 25
        },
        {
            "edge_type": "stargate",
            "source": 20,
            "target": 26
        },
        {
            "edge_type": "stargate",
            "source": 20,
            "target": 27
        },
        {
            "edge_type": "stargate",
            "source": 21,
            "target": 32
        },
        {
            "edge_type": "stargate",
            "source": 21,
            "target": 22
        },
        {
            "edge_type": "stargate",
            "source": 22,
            "target": 32
        },
        {
            "edge_type": "stargate",
            "source": 22,
            "target": 28
        },
        {
            "edge_type": "stargate",
            "source": 23,
            "target": 24
        },
        {
            "edge_type": "stargate",
            "source": 25,
            "target": 27
        },
        {
            "edge_type": "stargate",
            "source": 26,
            "target": 27
        },
        {
            "edge_type": "stargate",
            "source": 27,
            "target": 30
        },
        {
            "edge_type": "stargate",
            "source": 28,
            "target": 32
        },
        {
            "edge_type": "stargate",
            "source": 28,
            "target": 31
        },
        {
            "edge_type": "stargate",
            "source": 28,
            "target": 30
        },
        {
            "edge_type": "stargate",
            "source": 29,
            "target": 32
        },
        {
            "edge_type": "stargate",
            "source": 32,
            "target": 36
        },
        {
            "edge_type": "stargate",
            "source": 32,
            "target": 38
        },
        {
            "edge_type": "stargate",
            "source": 33,
            "target": 35
        },
        {
            "edge_type": "stargate",
            "source": 33,
            "target": 34
        },
        {
            "edge_type": "stargate",
            "source": 35,
            "target": 36
        },
        {
            "edge_type": "stargate",
            "source": 36,
            "target": 40
        },
        {
            "edge_type": "stargate",
            "source": 36,
            "target": 41
        },
        {
            "edge_type": "stargate",
            "source": 36,
            "target": 37
        },
        {
            "edge_type": "stargate",
            "source": 37,
            "target": 41
        },
        {
            "edge_type": "stargate",
            "source": 37,
            "target": 38
        },
        {
            "edge_type": "stargate",
            "source": 38,
            "target": 43
        },
        {
            "edge_type": "stargate",
            "source": 38,
            "target": 42
        },
        {
            "edge_type": "stargate",
            "source": 39,
            "target": 45
        },
        {
            "edge_type": "stargate",
            "source": 40,
            "target": 60
        },
        {
            "edge_type": "stargate",
            "source": 40,
            "target": 41
        },
        {
            "edge_type": "stargate",
            "source": 40,
            "target": 49
        },
        {
            "edge_type": "stargate",
            "source": 41,
            "target": 42
        },
        {
            "edge_type": "stargate",
            "source": 42,
            "target": 43
        },
        {
            "edge_type": "stargate",
            "source": 42,
            "target": 44
        },
        {
            "edge_type": "stargate",
            "source": 42,
            "target": 62
        },
        {
            "edge_type": "stargate",
            "source": 43,
            "target": 47
        },
        {
            "edge_type": "stargate",
            "source": 45,
            "target": 48
        },
        {
            "edge_type": "stargate",
            "source": 46,
            "target": 47
        },
        {
            "edge_type": "stargate",
            "source": 46,
            "target": 64
        },
        {
            "edge_type": "stargate",
            "source": 46,
            "target": 61
        },
        {
            "edge_type": "stargate",
            "source": 46,
            "target": 59
        },
        {
            "edge_type": "stargate",
            "source": 47,
            "target": 51
        },
        {
            "edge_type": "stargate",
            "source": 47,
            "target": 50
        },
        {
            "edge_type": "stargate",
            "source": 48,
            "target": 49
        },
        {
            "edge_type": "stargate",
            "source": 48,
            "target": 52
        },
        {
            "edge_type": "stargate",
            "source": 49,
            "target": 53
        },
        {
            "edge_type": "stargate",
            "source": 49,
            "target": 50
        },
        {
            "edge_type": "stargate",
            "source": 49,
            "target": 63
        },
        {
            "edge_type": "stargate",
            "source": 49,
            "target": 52
        },
        {
            "edge_type": "stargate",
            "source": 50,
            "target": 53
        },
        {
            "edge_type": "stargate",
            "source": 50,
            "target": 67
        },
        {
            "edge_type": "stargate",
            "source": 50,
            "target": 52
        },
        {
            "edge_type": "stargate",
            "source": 51,
            "target": 65
        },
        {
            "edge_type": "stargate",
            "source": 52,
            "target": 66
        },
        {
            "edge_type": "stargate",
            "source": 52,
            "target": 68
        },
        {
            "edge_type": "stargate",
            "source": 53,
            "target": 67
        },
        {
            "edge_type": "stargate",
            "source": 65,
            "target": 67
        }
    ]
}