{
    "directed": false,
    "multigraph": false,
    "graph": {
        "default_node_size": 0.04
    },
    "nodes": [
        {
            "pos": [
                0.975,
                0.22
            ],
            "id": 30003701
        },
        {
            "pos": [
                0.915,
                0.245
            ],
            "id": 30003699
        },
        {
            "pos": [
                0.91,
                0.3
            ],
            "id": 30003702
        },
        {
            "pos": [
                0.9,
                0.465
            ],
            "id": 30003693
        },
        {
            "pos": [
                0.855,
                0.265
            ],
            "id": 30003698
        },
        {
            "pos": [
                0.845,
                0.215
            ],
            "id": 30003700
        },
        {
            "pos": [
                0.8200000000000001,
                0.52
            ],
            "id": 30003695
        },
        {
            "pos": [
                0.81,
                0.585
            ],
            "id": 30003696
        },
        {
            "pos": [
                0.785,
                0.44
            ],
            "id": 30003692
        },
        {
            "pos": [
                0.78,
                0.285
            ],
            "id": 30003697
        },
        {
            "pos": [
                0.725,
                0.505
            ],
            "id": 30003691
        },
        {
            "pos": [
                0.7150000000000001,
                0.57
            ],
            "id": 30003694
        },
        {
            "pos": [
                0.69,
                0.435
            ],
            "id": 30003690
        },
        {
            "pos": [
                0.6699999999999999,
                0.295
            ],
            "id": 30003689
        },
        {
            "pos": [
                0.63,
                0.235
            ],
            "id": 30003687
        },
        {
            "pos": [
                0.6,
                0.295
            ],
            "id": 30003688
        },
        {
            "pos": [
                0.565,
                0.235
            ],
            "id": 30003686
        },
        {
            "pos": [
                0.53,
                0.295
            ],
            "id": 30003685
        },
        {
            "pos": [
                0.485,
                0.235
            ],
            "id": 30003684
        },
        {
            "pos": [
                0.45999999999999996,
                0.295
            ],
            "id": 30003683
        },
        {
            "pos": [
                0.35,
                0.295
            ],
            "id": 30003682
        },
        {
            "pos": [
                0.27,
                0.295
            ],
            "id": 30003680
        },
        {
            "pos": [
                0.27,
                0.365
            ],
            "id": 30003678
        },
        {
            "pos": [
                0.20999999999999996,
                0.425
            ],
            "id": 30003677
        },
        {
            "pos": [
                0.20999999999999996,
                0.5
            ],
            "id": 30003676
        },
        {
            "pos": [
                0.16000000000000003,
                0.295
            ],
            "id": 30003681
        },
        {
            "pos": [
                0.16000000000000003,
                0.365
            ],
            "id": 30003679
        },
        {
            "pos": [
                0.6699999999999999,
                0.64
            ],
            "id": 30004070
        },
        {
            "pos": [
                0.615,
                0.14
            ],
            "id": 30002930
        },
        {
            "pos": [
                0.53,
                0.405
            ],
            "id": 30002032
        },
        {
            "pos": [
                0.245,
                0.61
            ],
            "id": 30001983
        },
        {
            "pos": [
                0.125,
                0.19
            ],
            "id": 30002906
        },
        {
            "pos": [
                0.03500000000000003,
                0.305
            ],
            "id": 30001997
        }
    ],
    "links": [
        {
            "edge_type": "stargate",
            "source": 0,
            "target": 1
        },
        {
            "edge_type": "stargate",
            "source": 1,
            "target": 4
        },
        {
            "edge_type": "stargate",
            "source": 1,
            "target": 2
        },
        {
            "edge_type": "stargate",
            "source": 2,
            "target": 4
        },
        {
            "edge_type": "stargate",
            "source": 3,
            "target": 8
        },
        {
            "edge_type": "stargate",
            "source": 4,
            "target": 9
        },
        {
            "edge_type": "stargate",
            "source": 4,
            "target": 5
        },
        {
            "edge_type": "stargate",
            "source": 6,
            "target": 10
        },
        {
            "edge_type": "stargate",
            "source": 6,
            "target": 7
        },
        {
            "edge_type": "stargate",
            "source": 7,
            "target": 11
        },
        {
            "edge_type": "stargate",
            "source": 8,
            "target": 12
        },
        {
            "edge_type": "stargate",
            "source": 9,
            "target": 13
        },
        {
            "edge_type": "stargate",
            "source": 10,
            "target": 12
        },
        {
            "edge_type": "stargate",
            "source": 10,
            "target": 11
        },
        {
            "edge_type": "stargate",
            "source": 11,
            "target": 27
        },
        {
            "edge_type": "stargate",
            "source": 12,
            "target": 15
        },
        {
            "edge_type": "stargate",
            "source": 13,
            "target": 16
        },
        {
            "edge_type": "stargate",
            "source": 13,
            "target": 14
        },
        {
            "edge_type": "stargate",
            "source": 13,
            "target": 15
        },
        {
            "edge_type": "stargate",
            "source": 14,
            "target": 16
        },
        {
            "edge_type": "stargate",
            "source": 14,
            "target": 28
        },
        {
            "edge_type": "stargate",
            "source": 15,
            "target": 17
        },
        {
            "edge_type": "stargate",
            "source": 16,
            "target": 19
        },
        {
            "edge_type": "stargate",
            "source": 16,
            "target": 18
        },
        {
            "edge_type": "stargate",
            "source": 17,
            "target": 19
        },
        {
            "edge_type": "stargate",
            "source": 17,
            "target": 29
        },
        {
            "edge_type": "stargate",
            "source": 18,
            "target": 19
        },
        {
            "edge_type": "stargate",
            "source": 19,
            "target": 20
        },
        {
            "edge_type": "stargate",
            "source": 20,
            "target": 21
        },
        {
            "edge_type": "stargate",
            "source": 21,
            "target": 22
        },
        {
            "edge_type": "stargate",
            "source": 21,
            "target": 25
        },
        {
            "edge_type": "stargate",
            "source": 22,
            "target": 23
        },
        {
            "edge_type": "stargate",
            "source": 22,
            "target": 26
        },
        {
            "edge_type": "stargate",
            "source": 23,
            "target": 24
        },
        {
            "edge_type": "stargate",
            "source": 23,
            "target": 26
        },
        {
            "edge_type": "stargate",
            "source": 24,
            "target": 30
        },
        {
            "edge_type": "stargate",
            "source": 25,
            "target": 26
        },
        {
            "edge_type": "stargate",
            "source": 25,
            "target": 32
        },
        {
            "edge_type": "stargate",
            "source": 25,
            "target": 31
        }
    ]
}