{
    "directed": false,
    "multigraph": false,
    "graph": {
        "default_node_size": 0.04
    },
    "nodes": [
        {
            "pos": [
                0.995,
                0.195
            ],
            "id": 30004408
        },
        {
            "pos": [
                0.995,
                0.285
            ],
            "id": 30004450
        },
        {
            "pos": [
                0.995,
                0.33
            ],
            "id": 30004451
        },
        {
            "pos": [
                0.99,
                0.375
            ],
            "id": 30004453
        },
        {
            "pos": [
                0.98,
                0.415
            ],
            "id": 30004455
        },
        {
            "pos": [
                0.975,
                0.115
            ],
            "id": 30004404
        },
        {
            "pos": [
                0.965,
                0.07
            ],
            "id": 30004406
        },
        {
            "pos": [
                0.965,
                0.46
            ],
            "id": 30004457
        },
        {
            "pos": [
                0.921,
                0.286
            ],
            "id": 30004452
        },
        {
            "pos": [
                0.921,
                0.33
            ],
            "id": 30004454
        },
        {
            "pos": [
                0.92,
                0.425
            ],
            "id": 30004456
        },
        {
            "pos": [
                0.9,
                0.09
            ],
            "id": 30004405
        },
        {
            "pos": [
                0.9,
                0.725
            ],
            "id": 30004491
        },
        {
            "pos": [
                0.88,
                0.535
            ],
            "id": 30004459
        },
        {
            "pos": [
                0.855,
                0.445
            ],
            "id": 30004458
        },
        {
            "pos": [
                0.847,
                0.193
            ],
            "id": 30004411
        },
        {
            "pos": [
                0.83,
                0.09
            ],
            "id": 30004407
        },
        {
            "pos": [
                0.825,
                0.555
            ],
            "id": 30004460
        },
        {
            "pos": [
                0.825,
                0.725
            ],
            "id": 30004490
        },
        {
            "pos": [
                0.8180000000000001,
                0.347
            ],
            "id": 30004417
        },
        {
            "pos": [
                0.808,
                0.304
            ],
            "id": 30004416
        },
        {
            "pos": [
                0.78,
                0.197
            ],
            "id": 30004410
        },
        {
            "pos": [
                0.78,
                0.25
            ],
            "id": 30004412
        },
        {
            "pos": [
                0.765,
                0.57
            ],
            "id": 30004461
        },
        {
            "pos": [
                0.755,
                0.105
            ],
            "id": 30004409
        },
        {
            "pos": [
                0.75,
                0.685
            ],
            "id": 30004492
        },
        {
            "pos": [
                0.75,
                0.725
            ],
            "id": 30004489
        },
        {
            "pos": [
                0.727,
                0.306
            ],
            "id": 30004415
        },
        {
            "pos": [
                0.72,
                0.515
            ],
            "id": 30004446
        },
        {
            "pos": [
                0.7130000000000001,
                0.184
            ],
            "id": 30004413
        },
        {
            "pos": [
                0.71,
                0.62
            ],
            "id": 30004463
        },
        {
            "pos": [
                0.7090000000000001,
                0.245
            ],
            "id": 30004414
        },
        {
            "pos": [
                0.7,
                0.58
            ],
            "id": 30004462
        },
        {
            "pos": [
                0.6950000000000001,
                0.41
            ],
            "id": 30004448
        },
        {
            "pos": [
                0.685,
                0.02
            ],
            "id": 30004427
        },
        {
            "pos": [
                0.675,
                0.725
            ],
            "id": 30004488
        },
        {
            "pos": [
                0.65,
                0.145
            ],
            "id": 30004418
        },
        {
            "pos": [
                0.64,
                0.48
            ],
            "id": 30004445
        },
        {
            "pos": [
                0.635,
                0.43
            ],
            "id": 30004444
        },
        {
            "pos": [
                0.635,
                0.58
            ],
            "id": 30004464
        },
        {
            "pos": [
                0.63,
                0.29
            ],
            "id": 30004424
        },
        {
            "pos": [
                0.63,
                0.38
            ],
            "id": 30004443
        },
        {
            "pos": [
                0.61,
                0.05
            ],
            "id": 30004426
        },
        {
            "pos": [
                0.61,
                0.095
            ],
            "id": 30004425
        },
        {
            "pos": [
                0.61,
                0.235
            ],
            "id": 30004420
        },
        {
            "pos": [
                0.605,
                0.725
            ],
            "id": 30004487
        },
        {
            "pos": [
                0.5900000000000001,
                0.19
            ],
            "id": 30004419
        },
        {
            "pos": [
                0.565,
                0.535
            ],
            "id": 30004447
        },
        {
            "pos": [
                0.56,
                0.415
            ],
            "id": 30004449
        },
        {
            "pos": [
                0.5449999999999999,
                0.26
            ],
            "id": 30004421
        },
        {
            "pos": [
                0.54,
                0.05
            ],
            "id": 30004428
        },
        {
            "pos": [
                0.54,
                0.095
            ],
            "id": 30004429
        },
        {
            "pos": [
                0.54,
                0.14
            ],
            "id": 30004430
        },
        {
            "pos": [
                0.54,
                0.315
            ],
            "id": 30004423
        },
        {
            "pos": [
                0.52,
                0.215
            ],
            "id": 30004422
        },
        {
            "pos": [
                0.515,
                0.6
            ],
            "id": 30004478
        },
        {
            "pos": [
                0.495,
                0.725
            ],
            "id": 30004484
        },
        {
            "pos": [
                0.47,
                0.025
            ],
            "id": 30004435
        },
        {
            "pos": [
                0.45999999999999996,
                0.645
            ],
            "id": 30004479
        },
        {
            "pos": [
                0.45499999999999996,
                0.075
            ],
            "id": 30004431
        },
        {
            "pos": [
                0.44999999999999996,
                0.115
            ],
            "id": 30004433
        },
        {
            "pos": [
                0.43500000000000005,
                0.6
            ],
            "id": 30004481
        },
        {
            "pos": [
                0.43500000000000005,
                0.685
            ],
            "id": 30004480
        },
        {
            "pos": [
                0.42500000000000004,
                0.725
            ],
            "id": 30004483
        },
        {
            "pos": [
                0.4,
                0.175
            ],
            "id": 30004438
        },
        {
            "pos": [
                0.39,
                0.095
            ],
            "id": 30004432
        },
        {
            "pos": [
                0.39,
                0.47
            ],
            "id": 30004468
        },
        {
            "pos": [
                0.38,
                0.235
            ],
            "id": 30004436
        },
        {
            "pos": [
                0.38,
                0.515
            ],
            "id": 30004469
        },
        {
            "pos": [
                0.365,
                0.32
            ],
            "id": 30004442
        },
        {
            "pos": [
                0.36,
                0.665
            ],
            "id": 30004482
        },
        {
            "pos": [
                0.355,
                0.725
            ],
            "id": 30004485
        },
        {
            "pos": [
                0.35,
                0.435
            ],
            "id": 30004467
        },
        {
            "pos": [
                0.33999999999999997,
                0.56
            ],
            "id": 30004470
        },
        {
            "pos": [
                0.31999999999999995,
                0.105
            ],
            "id": 30004434
        },
        {
            "pos": [
                0.31000000000000005,
                0.215
            ],
            "id": 30004437
        },
        {
            "pos": [
                0.30500000000000005,
                0.27
            ],
            "id": 30004440
        },
        {
            "pos": [
                0.29000000000000004,
                0.415
            ],
            "id": 30004465
        },
        {
            "pos": [
                0.29000000000000004,
                0.725
            ],
            "id": 30004486
        },
        {
            "pos": [
                0.275,
                0.345
            ],
            "id": 30004441
        },
        {
            "pos": [
                0.21999999999999997,
                0.28
            ],
            "id": 30004439
        },
        {
            "pos": [
                0.21999999999999997,
                0.475
            ],
            "id": 30004466
        },
        {
            "pos": [
                0.21499999999999997,
                0.105
            ],
            "id": 30004471
        },
        {
            "pos": [
                0.15500000000000003,
                0.015
            ],
            "id": 30004474
        },
        {
            "pos": [
                0.15500000000000003,
                0.085
            ],
            "id": 30004472
        },
        {
            "pos": [
                0.09699999999999998,
                0.051
            ],
            "id": 30004477
        },
        {
            "pos": [
                0.06499999999999995,
                0.13
            ],
            "id": 30004473
        },
        {
            "pos": [
                0.04600000000000004,
                0.016
            ],
            "id": 30004476
        },
        {
            "pos": [
                0.04600000000000004,
                0.087
            ],
            "id": 30004475
        },
        {
            "pos": [
                0.98,
                0.73
            ],
            "id": 30003169
        },
        {
            "pos": [
                0.926,
                0.157
            ],
            "id": 30002594
        },
        {
            "pos": [
                0.921,
                0.244
            ],
            "id": 30003110
        },
        {
            "pos": [
                0.485,
                0.37
            ],
            "id": 30004884
        },
        {
            "pos": [
                0.36,
                0.02
            ],
            "id": 30004842
        },
        {
            "pos": [
                0.20999999999999996,
                0.74
            ],
            "id": 30004924
        }
    ],
    "links": [
        {
            "edge_type": "stargate",
            "source": 0,
            "target": 5
        },
        {
            "edge_type": "stargate",
            "source": 0,
            "target": 1
        },
        {
            "edge_type": "stargate",
            "source": 1,
            "target": 2
        },
        {
            "edge_type": "stargate",
            "source": 1,
            "target": 8
        },
        {
            "edge_type": "stargate",
            "source": 2,
            "target": 3
        },
        {
            "edge_type": "stargate",
            "source": 3,
            "target": 4
        },
        {
            "edge_type": "stargate",
            "source": 4,
            "target": 10
        },
        {
            "edge_type": "stargate",
            "source": 4,
            "target": 7
        },
        {
            "edge_type": "stargate",
            "source": 5,
            "target": 90
        },
        {
            "edge_type": "stargate",
            "source": 5,
            "target": 11
        },
        {
            "edge_type": "stargate",
            "source": 5,
            "target": 6
        },
        {
            "edge_type": "stargate",
            "source": 6,
            "target": 11
        },
        {
            "edge_type": "stargate",
            "source": 7,
            "target": 13
        },
        {
            "edge_type": "stargate",
            "source": 8,
            "target": 91
        },
        {
            "edge_type": "stargate",
            "source": 8,
            "target": 9
        },
        {
            "edge_type": "stargate",
            "source": 10,
            "target": 14
        },
        {
            "edge_type": "stargate",
            "source": 11,
            "target": 16
        },
        {
            "edge_type": "stargate",
            "source": 12,
            "target": 18
        },
        {
            "edge_type": "stargate",
            "source": 12,
            "target": 89
        },
        {
            "edge_type": "stargate",
            "source": 13,
            "target": 17
        },
        {
            "edge_type": "stargate",
            "source": 15,
            "target": 21
        },
        {
            "edge_type": "stargate",
            "source": 16,
            "target": 24
        },
        {
            "edge_type": "stargate",
            "source": 16,
            "target": 21
        },
        {
            "edge_type": "stargate",
            "source": 17,
            "target": 23
        },
        {
            "edge_type": "stargate",
            "source": 18,
            "target": 26
        },
        {
            "edge_type": "stargate",
            "source": 19,
            "target": 20
        },
        {
            "edge_type": "stargate",
            "source": 20,
            "target": 22
        },
        {
            "edge_type": "stargate",
            "source": 21,
            "target": 22
        },
        {
            "edge_type": "stargate",
            "source": 21,
            "target": 29
        },
        {
            "edge_type": "stargate",
            "source": 21,
            "target": 31
        },
        {
            "edge_type": "stargate",
            "source": 22,
            "target": 27
        },
        {
            "edge_type": "stargate",
            "source": 23,
            "target": 32
        },
        {
            "edge_type": "stargate",
            "source": 24,
            "target": 36
        },
        {
            "edge_type": "stargate",
            "source": 25,
            "target": 26
        },
        {
            "edge_type": "stargate",
            "source": 26,
            "target": 35
        },
        {
            "edge_type": "stargate",
            "source": 28,
            "target": 37
        },
        {
            "edge_type": "stargate",
            "source": 28,
            "target": 47
        },
        {
            "edge_type": "stargate",
            "source": 30,
            "target": 32
        },
        {
            "edge_type": "stargate",
            "source": 32,
            "target": 39
        },
        {
            "edge_type": "stargate",
            "source": 33,
            "target": 41
        },
        {
            "edge_type": "stargate",
            "source": 34,
            "target": 42
        },
        {
            "edge_type": "stargate",
            "source": 35,
            "target": 45
        },
        {
            "edge_type": "stargate",
            "source": 36,
            "target": 46
        },
        {
            "edge_type": "stargate",
            "source": 37,
            "target": 38
        },
        {
            "edge_type": "stargate",
            "source": 37,
            "target": 47
        },
        {
            "edge_type": "stargate",
            "source": 38,
            "target": 41
        },
        {
            "edge_type": "stargate",
            "source": 38,
            "target": 48
        },
        {
            "edge_type": "stargate",
            "source": 39,
            "target": 55
        },
        {
            "edge_type": "stargate",
            "source": 40,
            "target": 44
        },
        {
            "edge_type": "stargate",
            "source": 40,
            "target": 41
        },
        {
            "edge_type": "stargate",
            "source": 41,
            "target": 48
        },
        {
            "edge_type": "stargate",
            "source": 42,
            "target": 43
        },
        {
            "edge_type": "stargate",
            "source": 42,
            "target": 50
        },
        {
            "edge_type": "stargate",
            "source": 43,
            "target": 46
        },
        {
            "edge_type": "stargate",
            "source": 43,
            "target": 51
        },
        {
            "edge_type": "stargate",
            "source": 44,
            "target": 46
        },
        {
            "edge_type": "stargate",
            "source": 44,
            "target": 49
        },
        {
            "edge_type": "stargate",
            "source": 45,
            "target": 56
        },
        {
            "edge_type": "stargate",
            "source": 46,
            "target": 54
        },
        {
            "edge_type": "stargate",
            "source": 49,
            "target": 54
        },
        {
            "edge_type": "stargate",
            "source": 49,
            "target": 53
        },
        {
            "edge_type": "stargate",
            "source": 50,
            "target": 51
        },
        {
            "edge_type": "stargate",
            "source": 50,
            "target": 59
        },
        {
            "edge_type": "stargate",
            "source": 50,
            "target": 57
        },
        {
            "edge_type": "stargate",
            "source": 51,
            "target": 52
        },
        {
            "edge_type": "stargate",
            "source": 53,
            "target": 92
        },
        {
            "edge_type": "stargate",
            "source": 54,
            "target": 67
        },
        {
            "edge_type": "stargate",
            "source": 55,
            "target": 58
        },
        {
            "edge_type": "stargate",
            "source": 55,
            "target": 61
        },
        {
            "edge_type": "stargate",
            "source": 56,
            "target": 63
        },
        {
            "edge_type": "stargate",
            "source": 57,
            "target": 93
        },
        {
            "edge_type": "stargate",
            "source": 58,
            "target": 62
        },
        {
            "edge_type": "stargate",
            "source": 58,
            "target": 61
        },
        {
            "edge_type": "stargate",
            "source": 59,
            "target": 65
        },
        {
            "edge_type": "stargate",
            "source": 59,
            "target": 60
        },
        {
            "edge_type": "stargate",
            "source": 60,
            "target": 65
        },
        {
            "edge_type": "stargate",
            "source": 62,
            "target": 70
        },
        {
            "edge_type": "stargate",
            "source": 62,
            "target": 63
        },
        {
            "edge_type": "stargate",
            "source": 63,
            "target": 71
        },
        {
            "edge_type": "stargate",
            "source": 64,
            "target": 67
        },
        {
            "edge_type": "stargate",
            "source": 64,
            "target": 75
        },
        {
            "edge_type": "stargate",
            "source": 65,
            "target": 74
        },
        {
            "edge_type": "stargate",
            "source": 66,
            "target": 72
        },
        {
            "edge_type": "stargate",
            "source": 66,
            "target": 68
        },
        {
            "edge_type": "stargate",
            "source": 67,
            "target": 75
        },
        {
            "edge_type": "stargate",
            "source": 67,
            "target": 76
        },
        {
            "edge_type": "stargate",
            "source": 68,
            "target": 73
        },
        {
            "edge_type": "stargate",
            "source": 69,
            "target": 76
        },
        {
            "edge_type": "stargate",
            "source": 69,
            "target": 79
        },
        {
            "edge_type": "stargate",
            "source": 71,
            "target": 78
        },
        {
            "edge_type": "stargate",
            "source": 72,
            "target": 77
        },
        {
            "edge_type": "stargate",
            "source": 74,
            "target": 82
        },
        {
            "edge_type": "stargate",
            "source": 75,
            "target": 80
        },
        {
            "edge_type": "stargate",
            "source": 76,
            "target": 80
        },
        {
            "edge_type": "stargate",
            "source": 76,
            "target": 79
        },
        {
            "edge_type": "stargate",
            "source": 77,
            "target": 79
        },
        {
            "edge_type": "stargate",
            "source": 77,
            "target": 81
        },
        {
            "edge_type": "stargate",
            "source": 78,
            "target": 94
        },
        {
            "edge_type": "stargate",
            "source": 82,
            "target": 84
        },
        {
            "edge_type": "stargate",
            "source": 83,
            "target": 84
        },
        {
            "edge_type": "stargate",
            "source": 83,
            "target": 87
        },
        {
            "edge_type": "stargate",
            "source": 83,
            "target": 85
        },
        {
            "edge_type": "stargate",
            "source": 84,
            "target": 86
        },
        {
            "edge_type": "stargate",
            "source": 84,
            "target": 88
        },
        {
            "edge_type": "stargate",
            "source": 84,
            "target": 85
        },
        {
            "edge_type": "stargate",
            "source": 85,
            "target": 87
        },
        {
            "edge_type": "stargate",
            "source": 87,
            "target": 88
        }
    ]
}