{
    "directed": false,
    "multigraph": false,
    "graph": {
        "default_node_size": 0.04
    },
    "nodes": [
        {
            "pos": [
                1.0,
                0.11
            ],
            "id": 30003834
        },
        {
            "pos": [
                0.99,
                0.54
            ],
            "id": 30003823
        },
        {
            "pos": [
                0.97,
                0.15
            ],
            "id": 30003832
        },
        {
            "pos": [
                0.94,
                0.425
            ],
            "id": 30003820
        },
        {
            "pos": [
                0.94,
                0.505
            ],
            "id": 30003821
        },
        {
            "pos": [
                0.91,
                0.115
            ],
            "id": 30003835
        },
        {
            "pos": [
                0.91,
                0.375
            ],
            "id": 30003822
        },
        {
            "pos": [
                0.9,
                0.47
            ],
            "id": 30003819
        },
        {
            "pos": [
                0.89,
                0.16
            ],
            "id": 30003831
        },
        {
            "pos": [
                0.855,
                0.065
            ],
            "id": 30003850
        },
        {
            "pos": [
                0.835,
                0.0
            ],
            "id": 30003856
        },
        {
            "pos": [
                0.83,
                0.475
            ],
            "id": 30003818
        },
        {
            "pos": [
                0.8049999999999999,
                0.17
            ],
            "id": 30003830
        },
        {
            "pos": [
                0.8,
                0.03
            ],
            "id": 30003853
        },
        {
            "pos": [
                0.77,
                0.06
            ],
            "id": 30003851
        },
        {
            "pos": [
                0.74,
                0.48
            ],
            "id": 30003805
        },
        {
            "pos": [
                0.73,
                0.705
            ],
            "id": 30003846
        },
        {
            "pos": [
                0.725,
                0.665
            ],
            "id": 30003845
        },
        {
            "pos": [
                0.6950000000000001,
                0.175
            ],
            "id": 30003833
        },
        {
            "pos": [
                0.675,
                0.39
            ],
            "id": 30003804
        },
        {
            "pos": [
                0.675,
                0.635
            ],
            "id": 30003844
        },
        {
            "pos": [
                0.675,
                0.73
            ],
            "id": 30003849
        },
        {
            "pos": [
                0.6699999999999999,
                0.435
            ],
            "id": 30003803
        },
        {
            "pos": [
                0.665,
                0.48
            ],
            "id": 30003801
        },
        {
            "pos": [
                0.6599999999999999,
                0.065
            ],
            "id": 30003852
        },
        {
            "pos": [
                0.64,
                0.0
            ],
            "id": 30003855
        },
        {
            "pos": [
                0.615,
                0.515
            ],
            "id": 30003802
        },
        {
            "pos": [
                0.615,
                0.625
            ],
            "id": 30003843
        },
        {
            "pos": [
                0.605,
                0.03
            ],
            "id": 30003854
        },
        {
            "pos": [
                0.595,
                0.735
            ],
            "id": 30003848
        },
        {
            "pos": [
                0.575,
                0.34
            ],
            "id": 30003809
        },
        {
            "pos": [
                0.575,
                0.39
            ],
            "id": 30003808
        },
        {
            "pos": [
                0.565,
                0.065
            ],
            "id": 30003857
        },
        {
            "pos": [
                0.565,
                0.47
            ],
            "id": 30003800
        },
        {
            "pos": [
                0.5449999999999999,
                0.705
            ],
            "id": 30003847
        },
        {
            "pos": [
                0.5,
                0.315
            ],
            "id": 30003810
        },
        {
            "pos": [
                0.5,
                0.365
            ],
            "id": 30003807
        },
        {
            "pos": [
                0.495,
                0.405
            ],
            "id": 30003806
        },
        {
            "pos": [
                0.495,
                0.525
            ],
            "id": 30003795
        },
        {
            "pos": [
                0.49,
                0.675
            ],
            "id": 30003798
        },
        {
            "pos": [
                0.47,
                0.0
            ],
            "id": 30003842
        },
        {
            "pos": [
                0.46499999999999997,
                0.045
            ],
            "id": 30003840
        },
        {
            "pos": [
                0.44999999999999996,
                0.28
            ],
            "id": 30003811
        },
        {
            "pos": [
                0.43999999999999995,
                0.175
            ],
            "id": 30003827
        },
        {
            "pos": [
                0.42500000000000004,
                0.235
            ],
            "id": 30003824
        },
        {
            "pos": [
                0.405,
                0.57
            ],
            "id": 30003794
        },
        {
            "pos": [
                0.405,
                0.62
            ],
            "id": 30003796
        },
        {
            "pos": [
                0.375,
                0.325
            ],
            "id": 30003812
        },
        {
            "pos": [
                0.37,
                0.045
            ],
            "id": 30003839
        },
        {
            "pos": [
                0.365,
                0.16
            ],
            "id": 30003829
        },
        {
            "pos": [
                0.355,
                0.285
            ],
            "id": 30003813
        },
        {
            "pos": [
                0.35,
                0.445
            ],
            "id": 30003792
        },
        {
            "pos": [
                0.33499999999999996,
                0.215
            ],
            "id": 30003825
        },
        {
            "pos": [
                0.32499999999999996,
                0.57
            ],
            "id": 30003797
        },
        {
            "pos": [
                0.32499999999999996,
                0.62
            ],
            "id": 30003799
        },
        {
            "pos": [
                0.31499999999999995,
                0.375
            ],
            "id": 30003817
        },
        {
            "pos": [
                0.31000000000000005,
                0.33
            ],
            "id": 30003815
        },
        {
            "pos": [
                0.29500000000000004,
                0.07
            ],
            "id": 30003837
        },
        {
            "pos": [
                0.29500000000000004,
                0.12
            ],
            "id": 30003836
        },
        {
            "pos": [
                0.28500000000000003,
                0.29
            ],
            "id": 30003814
        },
        {
            "pos": [
                0.275,
                0.485
            ],
            "id": 30003793
        },
        {
            "pos": [
                0.265,
                0.18
            ],
            "id": 30003828
        },
        {
            "pos": [
                0.245,
                0.335
            ],
            "id": 30003816
        },
        {
            "pos": [
                0.22999999999999998,
                0.225
            ],
            "id": 30003826
        },
        {
            "pos": [
                0.18500000000000005,
                0.09
            ],
            "id": 30003838
        },
        {
            "pos": [
                0.18000000000000005,
                0.14
            ],
            "id": 30003841
        },
        {
            "pos": [
                0.17000000000000004,
                0.425
            ],
            "id": 30003787
        },
        {
            "pos": [
                0.15500000000000003,
                0.35
            ],
            "id": 30003790
        },
        {
            "pos": [
                0.08999999999999997,
                0.45
            ],
            "id": 30003791
        },
        {
            "pos": [
                0.07499999999999996,
                0.34
            ],
            "id": 30003788
        },
        {
            "pos": [
                0.06000000000000005,
                0.395
            ],
            "id": 30003789
        },
        {
            "pos": [
                0.995,
                0.38
            ],
            "id": 30003323
        },
        {
            "pos": [
                0.86,
                0.22
            ],
            "id": 30003277
        },
        {
            "pos": [
                0.78,
                0.23
            ],
            "id": 30004975
        },
        {
            "pos": [
                0.72,
                0.0
            ],
            "id": 30002039
        },
        {
            "pos": [
                0.52,
                0.595
            ],
            "id": 30005307
        },
        {
            "pos": [
                0.275,
                0.03
            ],
            "id": 30045344
        },
        {
            "pos": [
                0.235,
                0.545
            ],
            "id": 30003268
        },
        {
            "pos": [
                0.17500000000000004,
                0.05
            ],
            "id": 30045319
        },
        {
            "pos": [
                0.17500000000000004,
                0.465
            ],
            "id": 30005300
        },
        {
            "pos": [
                0.08999999999999997,
                0.16
            ],
            "id": 30004046
        }
    ],
    "links": [
        {
            "edge_type": "stargate",
            "source": 0,
            "target": 2
        },
        {
            "edge_type": "stargate",
            "source": 1,
            "target": 4
        },
        {
            "edge_type": "stargate",
            "source": 2,
            "target": 8
        },
        {
            "edge_type": "stargate",
            "source": 2,
            "target": 5
        },
        {
            "edge_type": "stargate",
            "source": 3,
            "target": 7
        },
        {
            "edge_type": "stargate",
            "source": 3,
            "target": 71
        },
        {
            "edge_type": "stargate",
            "source": 3,
            "target": 6
        },
        {
            "edge_type": "stargate",
            "source": 4,
            "target": 7
        },
        {
            "edge_type": "stargate",
            "source": 5,
            "target": 8
        },
        {
            "edge_type": "stargate",
            "source": 5,
            "target": 9
        },
        {
            "edge_type": "stargate",
            "source": 7,
            "target": 11
        },
        {
            "edge_type": "stargate",
            "source": 8,
            "target": 12
        },
        {
            "edge_type": "stargate",
            "source": 9,
            "target": 14
        },
        {
            "edge_type": "stargate",
            "source": 10,
            "target": 13
        },
        {
            "edge_type": "stargate",
            "source": 11,
            "target": 15
        },
        {
            "edge_type": "stargate",
            "source": 12,
            "target": 72
        },
        {
            "edge_type": "stargate",
            "source": 12,
            "target": 18
        },
        {
            "edge_type": "stargate",
            "source": 12,
            "target": 73
        },
        {
            "edge_type": "stargate",
            "source": 13,
            "target": 14
        },
        {
            "edge_type": "stargate",
            "source": 14,
            "target": 24
        },
        {
            "edge_type": "stargate",
            "source": 15,
            "target": 23
        },
        {
            "edge_type": "stargate",
            "source": 16,
            "target": 17
        },
        {
            "edge_type": "stargate",
            "source": 16,
            "target": 21
        },
        {
            "edge_type": "stargate",
            "source": 17,
            "target": 20
        },
        {
            "edge_type": "stargate",
            "source": 17,
            "target": 34
        },
        {
            "edge_type": "stargate",
            "source": 18,
            "target": 43
        },
        {
            "edge_type": "stargate",
            "source": 19,
            "target": 22
        },
        {
            "edge_type": "stargate",
            "source": 20,
            "target": 27
        },
        {
            "edge_type": "stargate",
            "source": 21,
            "target": 29
        },
        {
            "edge_type": "stargate",
            "source": 22,
            "target": 23
        },
        {
            "edge_type": "stargate",
            "source": 23,
            "target": 33
        },
        {
            "edge_type": "stargate",
            "source": 23,
            "target": 26
        },
        {
            "edge_type": "stargate",
            "source": 24,
            "target": 28
        },
        {
            "edge_type": "stargate",
            "source": 24,
            "target": 32
        },
        {
            "edge_type": "stargate",
            "source": 25,
            "target": 28
        },
        {
            "edge_type": "stargate",
            "source": 25,
            "target": 74
        },
        {
            "edge_type": "stargate",
            "source": 26,
            "target": 38
        },
        {
            "edge_type": "stargate",
            "source": 27,
            "target": 75
        },
        {
            "edge_type": "stargate",
            "source": 28,
            "target": 32
        },
        {
            "edge_type": "stargate",
            "source": 29,
            "target": 34
        },
        {
            "edge_type": "stargate",
            "source": 30,
            "target": 31
        },
        {
            "edge_type": "stargate",
            "source": 30,
            "target": 35
        },
        {
            "edge_type": "stargate",
            "source": 31,
            "target": 37
        },
        {
            "edge_type": "stargate",
            "source": 32,
            "target": 41
        },
        {
            "edge_type": "stargate",
            "source": 33,
            "target": 51
        },
        {
            "edge_type": "stargate",
            "source": 34,
            "target": 39
        },
        {
            "edge_type": "stargate",
            "source": 35,
            "target": 36
        },
        {
            "edge_type": "stargate",
            "source": 35,
            "target": 42
        },
        {
            "edge_type": "stargate",
            "source": 36,
            "target": 37
        },
        {
            "edge_type": "stargate",
            "source": 37,
            "target": 51
        },
        {
            "edge_type": "stargate",
            "source": 38,
            "target": 45
        },
        {
            "edge_type": "stargate",
            "source": 38,
            "target": 46
        },
        {
            "edge_type": "stargate",
            "source": 39,
            "target": 45
        },
        {
            "edge_type": "stargate",
            "source": 39,
            "target": 46
        },
        {
            "edge_type": "stargate",
            "source": 40,
            "target": 41
        },
        {
            "edge_type": "stargate",
            "source": 41,
            "target": 48
        },
        {
            "edge_type": "stargate",
            "source": 42,
            "target": 47
        },
        {
            "edge_type": "stargate",
            "source": 42,
            "target": 44
        },
        {
            "edge_type": "stargate",
            "source": 43,
            "target": 44
        },
        {
            "edge_type": "stargate",
            "source": 43,
            "target": 52
        },
        {
            "edge_type": "stargate",
            "source": 43,
            "target": 49
        },
        {
            "edge_type": "stargate",
            "source": 44,
            "target": 52
        },
        {
            "edge_type": "stargate",
            "source": 45,
            "target": 51
        },
        {
            "edge_type": "stargate",
            "source": 45,
            "target": 53
        },
        {
            "edge_type": "stargate",
            "source": 45,
            "target": 75
        },
        {
            "edge_type": "stargate",
            "source": 46,
            "target": 53
        },
        {
            "edge_type": "stargate",
            "source": 46,
            "target": 54
        },
        {
            "edge_type": "stargate",
            "source": 47,
            "target": 50
        },
        {
            "edge_type": "stargate",
            "source": 47,
            "target": 56
        },
        {
            "edge_type": "stargate",
            "source": 48,
            "target": 57
        },
        {
            "edge_type": "stargate",
            "source": 49,
            "target": 61
        },
        {
            "edge_type": "stargate",
            "source": 49,
            "target": 58
        },
        {
            "edge_type": "stargate",
            "source": 50,
            "target": 59
        },
        {
            "edge_type": "stargate",
            "source": 50,
            "target": 56
        },
        {
            "edge_type": "stargate",
            "source": 51,
            "target": 66
        },
        {
            "edge_type": "stargate",
            "source": 51,
            "target": 60
        },
        {
            "edge_type": "stargate",
            "source": 51,
            "target": 53
        },
        {
            "edge_type": "stargate",
            "source": 52,
            "target": 63
        },
        {
            "edge_type": "stargate",
            "source": 52,
            "target": 61
        },
        {
            "edge_type": "stargate",
            "source": 53,
            "target": 54
        },
        {
            "edge_type": "stargate",
            "source": 55,
            "target": 56
        },
        {
            "edge_type": "stargate",
            "source": 56,
            "target": 59
        },
        {
            "edge_type": "stargate",
            "source": 56,
            "target": 62
        },
        {
            "edge_type": "stargate",
            "source": 57,
            "target": 58
        },
        {
            "edge_type": "stargate",
            "source": 57,
            "target": 76
        },
        {
            "edge_type": "stargate",
            "source": 58,
            "target": 64
        },
        {
            "edge_type": "stargate",
            "source": 58,
            "target": 65
        },
        {
            "edge_type": "stargate",
            "source": 60,
            "target": 77
        },
        {
            "edge_type": "stargate",
            "source": 61,
            "target": 63
        },
        {
            "edge_type": "stargate",
            "source": 63,
            "target": 67
        },
        {
            "edge_type": "stargate",
            "source": 64,
            "target": 78
        },
        {
            "edge_type": "stargate",
            "source": 65,
            "target": 80
        },
        {
            "edge_type": "stargate",
            "source": 66,
            "target": 69
        },
        {
            "edge_type": "stargate",
            "source": 66,
            "target": 67
        },
        {
            "edge_type": "stargate",
            "source": 66,
            "target": 68
        },
        {
            "edge_type": "stargate",
            "source": 66,
            "target": 79
        },
        {
            "edge_type": "stargate",
            "source": 67,
            "target": 69
        },
        {
            "edge_type": "stargate",
            "source": 68,
            "target": 70
        },
        {
            "edge_type": "stargate",
            "source": 69,
            "target": 70
        }
    ]
}