{
    "directed": false,
    "multigraph": false,
    "graph": {
        "default_node_size": 0.04
    },
    "nodes": [
        {
            "pos": [
                0.94,
                0.295
            ],
            "id": 30003661
        },
        {
            "pos": [
                0.94,
                0.515
            ],
            "id": 30003620
        },
        {
            "pos": [
                0.9299999999999999,
                0.03
            ],
            "id": 30003668
        },
        {
            "pos": [
                0.925,
                0.245
            ],
            "id": 30003660
        },
        {
            "pos": [
                0.915,
                0.145
            ],
            "id": 30003669
        },
        {
            "pos": [
                0.91,
                0.7
            ],
            "id": 30003608
        },
        {
            "pos": [
                0.875,
                0.06
            ],
            "id": 30003666
        },
        {
            "pos": [
                0.855,
                0.1
            ],
            "id": 30003665
        },
        {
            "pos": [
                0.855,
                0.415
            ],
            "id": 30003621
        },
        {
            "pos": [
                0.855,
                0.465
            ],
            "id": 30003619
        },
        {
            "pos": [
                0.85,
                0.69
            ],
            "id": 30003609
        },
        {
            "pos": [
                0.845,
                0.145
            ],
            "id": 30003664
        },
        {
            "pos": [
                0.845,
                0.515
            ],
            "id": 30003618
        },
        {
            "pos": [
                0.84,
                0.24
            ],
            "id": 30003663
        },
        {
            "pos": [
                0.84,
                0.28
            ],
            "id": 30003659
        },
        {
            "pos": [
                0.84,
                0.325
            ],
            "id": 30003658
        },
        {
            "pos": [
                0.84,
                0.6
            ],
            "id": 30003622
        },
        {
            "pos": [
                0.8200000000000001,
                0.565
            ],
            "id": 30003617
        },
        {
            "pos": [
                0.78,
                0.115
            ],
            "id": 30003667
        },
        {
            "pos": [
                0.78,
                0.265
            ],
            "id": 30003662
        },
        {
            "pos": [
                0.77,
                0.675
            ],
            "id": 30003610
        },
        {
            "pos": [
                0.76,
                0.62
            ],
            "id": 30003613
        },
        {
            "pos": [
                0.72,
                0.21
            ],
            "id": 30003673
        },
        {
            "pos": [
                0.72,
                0.525
            ],
            "id": 30003633
        },
        {
            "pos": [
                0.685,
                0.655
            ],
            "id": 30003611
        },
        {
            "pos": [
                0.6599999999999999,
                0.185
            ],
            "id": 30003672
        },
        {
            "pos": [
                0.6599999999999999,
                0.46
            ],
            "id": 30003632
        },
        {
            "pos": [
                0.645,
                0.13
            ],
            "id": 30003674
        },
        {
            "pos": [
                0.645,
                0.525
            ],
            "id": 30003631
        },
        {
            "pos": [
                0.645,
                0.575
            ],
            "id": 30003634
        },
        {
            "pos": [
                0.61,
                0.065
            ],
            "id": 30003675
        },
        {
            "pos": [
                0.61,
                0.665
            ],
            "id": 30003612
        },
        {
            "pos": [
                0.585,
                0.19
            ],
            "id": 30003671
        },
        {
            "pos": [
                0.5800000000000001,
                0.29
            ],
            "id": 30003642
        },
        {
            "pos": [
                0.5800000000000001,
                0.345
            ],
            "id": 30003637
        },
        {
            "pos": [
                0.5800000000000001,
                0.405
            ],
            "id": 30003639
        },
        {
            "pos": [
                0.5449999999999999,
                0.225
            ],
            "id": 30003670
        },
        {
            "pos": [
                0.53,
                0.655
            ],
            "id": 30003614
        },
        {
            "pos": [
                0.515,
                0.295
            ],
            "id": 30003640
        },
        {
            "pos": [
                0.5,
                0.37
            ],
            "id": 30003636
        },
        {
            "pos": [
                0.495,
                0.47
            ],
            "id": 30003630
        },
        {
            "pos": [
                0.495,
                0.52
            ],
            "id": 30003629
        },
        {
            "pos": [
                0.49,
                0.6
            ],
            "id": 30003616
        },
        {
            "pos": [
                0.45999999999999996,
                0.655
            ],
            "id": 30003615
        },
        {
            "pos": [
                0.42500000000000004,
                0.28
            ],
            "id": 30003643
        },
        {
            "pos": [
                0.42500000000000004,
                0.34
            ],
            "id": 30003638
        },
        {
            "pos": [
                0.42500000000000004,
                0.395
            ],
            "id": 30003641
        },
        {
            "pos": [
                0.42000000000000004,
                0.465
            ],
            "id": 30003635
        },
        {
            "pos": [
                0.385,
                0.61
            ],
            "id": 30003625
        },
        {
            "pos": [
                0.385,
                0.655
            ],
            "id": 30003623
        },
        {
            "pos": [
                0.355,
                0.335
            ],
            "id": 30003648
        },
        {
            "pos": [
                0.31999999999999995,
                0.375
            ],
            "id": 30003646
        },
        {
            "pos": [
                0.31999999999999995,
                0.415
            ],
            "id": 30003645
        },
        {
            "pos": [
                0.31999999999999995,
                0.46
            ],
            "id": 30003644
        },
        {
            "pos": [
                0.30000000000000004,
                0.565
            ],
            "id": 30003627
        },
        {
            "pos": [
                0.28500000000000003,
                0.29
            ],
            "id": 30003649
        },
        {
            "pos": [
                0.28500000000000003,
                0.335
            ],
            "id": 30003647
        },
        {
            "pos": [
                0.265,
                0.605
            ],
            "id": 30003624
        },
        {
            "pos": [
                0.24,
                0.23
            ],
            "id": 30003654
        },
        {
            "pos": [
                0.21999999999999997,
                0.525
            ],
            "id": 30003626
        },
        {
            "pos": [
                0.20999999999999996,
                0.155
            ],
            "id": 30003655
        },
        {
            "pos": [
                0.18500000000000005,
                0.275
            ],
            "id": 30003651
        },
        {
            "pos": [
                0.18500000000000005,
                0.34
            ],
            "id": 30003650
        },
        {
            "pos": [
                0.14,
                0.52
            ],
            "id": 30003628
        },
        {
            "pos": [
                0.11499999999999999,
                0.175
            ],
            "id": 30003656
        },
        {
            "pos": [
                0.10499999999999998,
                0.325
            ],
            "id": 30003652
        },
        {
            "pos": [
                0.06999999999999995,
                0.265
            ],
            "id": 30003653
        },
        {
            "pos": [
                0.06499999999999995,
                0.11
            ],
            "id": 30003657
        },
        {
            "pos": [
                1.0,
                0.015
            ],
            "id": 30004363
        },
        {
            "pos": [
                1.0,
                0.545
            ],
            "id": 30004352
        },
        {
            "pos": [
                0.99,
                0.14
            ],
            "id": 30004401
        },
        {
            "pos": [
                0.99,
                0.69
            ],
            "id": 30004334
        },
        {
            "pos": [
                0.63,
                0.735
            ],
            "id": 30001346
        },
        {
            "pos": [
                0.31000000000000005,
                0.18
            ],
            "id": 30004228
        },
        {
            "pos": [
                0.05500000000000005,
                0.03
            ],
            "id": 30001349
        }
    ],
    "links": [
        {
            "edge_type": "stargate",
            "source": 0,
            "target": 14
        },
        {
            "edge_type": "stargate",
            "source": 0,
            "target": 3
        },
        {
            "edge_type": "stargate",
            "source": 1,
            "target": 9
        },
        {
            "edge_type": "stargate",
            "source": 1,
            "target": 69
        },
        {
            "edge_type": "stargate",
            "source": 2,
            "target": 6
        },
        {
            "edge_type": "stargate",
            "source": 2,
            "target": 68
        },
        {
            "edge_type": "stargate",
            "source": 3,
            "target": 14
        },
        {
            "edge_type": "stargate",
            "source": 4,
            "target": 11
        },
        {
            "edge_type": "stargate",
            "source": 4,
            "target": 70
        },
        {
            "edge_type": "stargate",
            "source": 5,
            "target": 10
        },
        {
            "edge_type": "stargate",
            "source": 5,
            "target": 71
        },
        {
            "edge_type": "stargate",
            "source": 6,
            "target": 7
        },
        {
            "edge_type": "stargate",
            "source": 7,
            "target": 11
        },
        {
            "edge_type": "stargate",
            "source": 7,
            "target": 18
        },
        {
            "edge_type": "stargate",
            "source": 8,
            "target": 9
        },
        {
            "edge_type": "stargate",
            "source": 8,
            "target": 15
        },
        {
            "edge_type": "stargate",
            "source": 9,
            "target": 12
        },
        {
            "edge_type": "stargate",
            "source": 10,
            "target": 20
        },
        {
            "edge_type": "stargate",
            "source": 11,
            "target": 13
        },
        {
            "edge_type": "stargate",
            "source": 11,
            "target": 18
        },
        {
            "edge_type": "stargate",
            "source": 12,
            "target": 17
        },
        {
            "edge_type": "stargate",
            "source": 13,
            "target": 14
        },
        {
            "edge_type": "stargate",
            "source": 14,
            "target": 15
        },
        {
            "edge_type": "stargate",
            "source": 15,
            "target": 19
        },
        {
            "edge_type": "stargate",
            "source": 16,
            "target": 17
        },
        {
            "edge_type": "stargate",
            "source": 17,
            "target": 21
        },
        {
            "edge_type": "stargate",
            "source": 19,
            "target": 22
        },
        {
            "edge_type": "stargate",
            "source": 20,
            "target": 24
        },
        {
            "edge_type": "stargate",
            "source": 21,
            "target": 24
        },
        {
            "edge_type": "stargate",
            "source": 22,
            "target": 25
        },
        {
            "edge_type": "stargate",
            "source": 23,
            "target": 28
        },
        {
            "edge_type": "stargate",
            "source": 23,
            "target": 29
        },
        {
            "edge_type": "stargate",
            "source": 24,
            "target": 31
        },
        {
            "edge_type": "stargate",
            "source": 25,
            "target": 32
        },
        {
            "edge_type": "stargate",
            "source": 25,
            "target": 27
        },
        {
            "edge_type": "stargate",
            "source": 26,
            "target": 28
        },
        {
            "edge_type": "stargate",
            "source": 27,
            "target": 30
        },
        {
            "edge_type": "stargate",
            "source": 28,
            "target": 41
        },
        {
            "edge_type": "stargate",
            "source": 28,
            "target": 29
        },
        {
            "edge_type": "stargate",
            "source": 29,
            "target": 41
        },
        {
            "edge_type": "stargate",
            "source": 31,
            "target": 72
        },
        {
            "edge_type": "stargate",
            "source": 31,
            "target": 37
        },
        {
            "edge_type": "stargate",
            "source": 32,
            "target": 36
        },
        {
            "edge_type": "stargate",
            "source": 33,
            "target": 38
        },
        {
            "edge_type": "stargate",
            "source": 34,
            "target": 39
        },
        {
            "edge_type": "stargate",
            "source": 34,
            "target": 35
        },
        {
            "edge_type": "stargate",
            "source": 35,
            "target": 39
        },
        {
            "edge_type": "stargate",
            "source": 36,
            "target": 38
        },
        {
            "edge_type": "stargate",
            "source": 37,
            "target": 43
        },
        {
            "edge_type": "stargate",
            "source": 37,
            "target": 42
        },
        {
            "edge_type": "stargate",
            "source": 38,
            "target": 39
        },
        {
            "edge_type": "stargate",
            "source": 38,
            "target": 44
        },
        {
            "edge_type": "stargate",
            "source": 39,
            "target": 40
        },
        {
            "edge_type": "stargate",
            "source": 39,
            "target": 45
        },
        {
            "edge_type": "stargate",
            "source": 39,
            "target": 46
        },
        {
            "edge_type": "stargate",
            "source": 40,
            "target": 41
        },
        {
            "edge_type": "stargate",
            "source": 40,
            "target": 47
        },
        {
            "edge_type": "stargate",
            "source": 41,
            "target": 42
        },
        {
            "edge_type": "stargate",
            "source": 42,
            "target": 43
        },
        {
            "edge_type": "stargate",
            "source": 43,
            "target": 49
        },
        {
            "edge_type": "stargate",
            "source": 48,
            "target": 49
        },
        {
            "edge_type": "stargate",
            "source": 48,
            "target": 54
        },
        {
            "edge_type": "stargate",
            "source": 48,
            "target": 53
        },
        {
            "edge_type": "stargate",
            "source": 49,
            "target": 57
        },
        {
            "edge_type": "stargate",
            "source": 50,
            "target": 51
        },
        {
            "edge_type": "stargate",
            "source": 51,
            "target": 52
        },
        {
            "edge_type": "stargate",
            "source": 51,
            "target": 56
        },
        {
            "edge_type": "stargate",
            "source": 52,
            "target": 53
        },
        {
            "edge_type": "stargate",
            "source": 54,
            "target": 57
        },
        {
            "edge_type": "stargate",
            "source": 54,
            "target": 59
        },
        {
            "edge_type": "stargate",
            "source": 55,
            "target": 56
        },
        {
            "edge_type": "stargate",
            "source": 57,
            "target": 59
        },
        {
            "edge_type": "stargate",
            "source": 58,
            "target": 61
        },
        {
            "edge_type": "stargate",
            "source": 58,
            "target": 60
        },
        {
            "edge_type": "stargate",
            "source": 58,
            "target": 73
        },
        {
            "edge_type": "stargate",
            "source": 59,
            "target": 63
        },
        {
            "edge_type": "stargate",
            "source": 59,
            "target": 62
        },
        {
            "edge_type": "stargate",
            "source": 60,
            "target": 66
        },
        {
            "edge_type": "stargate",
            "source": 60,
            "target": 64
        },
        {
            "edge_type": "stargate",
            "source": 60,
            "target": 67
        },
        {
            "edge_type": "stargate",
            "source": 61,
            "target": 62
        },
        {
            "edge_type": "stargate",
            "source": 61,
            "target": 65
        },
        {
            "edge_type": "stargate",
            "source": 61,
            "target": 66
        },
        {
            "edge_type": "stargate",
            "source": 64,
            "target": 66
        },
        {
            "edge_type": "stargate",
            "source": 64,
            "target": 67
        },
        {
            "edge_type": "stargate",
            "source": 65,
            "target": 66
        },
        {
            "edge_type": "stargate",
            "source": 66,
            "target": 67
        },
        {
            "edge_type": "stargate",
            "source": 67,
            "target": 74
        }
    ]
}